[
    {
        "id": "login",
        "label": "login-name",
        "type": "paragraph",
        "sample": "login-unknown"
    },
    {
        "id": "id",
        "label": "id-name",
        "type": "paragraph",
        "sample": "login-unknown"
    },
    {
        "id": "avatar_url",
        "label": "avatar_url-name",
        "type": "paragraph",
        "sample": "login-unknown"
    },
    {
        "id": "gravatar_id",
        "label": "gravatar_id-name",
        "type": "paragraph",
        "sample": "login-unknown"
    },
    {
        "id": "url",
        "label": "url-name",
        "type": "paragraph",
        "sample": "login-unknown"
    },
    {
        "id": "html_url",
        "label": "html_url-name",
        "type": "paragraph",
        "sample": "login-unknown"
    },
    {
        "id": "followers_url",
        "label": "followers_url-name",
        "type": "paragraph",
        "sample": "login-unknown"
    },
    {
        "id": "following_url",
        "label": "following_url-name",
        "type": "paragraph",
        "sample": "login-unknown"
    },
    {
        "id": "gists_url",
        "label": "gists_url-name",
        "type": "paragraph",
        "sample": "login-unknown"
    },
    {
        "id": "starred_url",
        "label": "starred_url-name",
        "type": "paragraph",
        "sample": "login-unknown"
    },
    {
        "id": "subscriptions_url",
        "label": "subscriptions_url-name",
        "type": "paragraph",
        "sample": "login-unknown"
    },
    {
        "id": "organizations_url",
        "label": "organizations_url-name",
        "type": "paragraph",
        "sample": "login-unknown"
    },
    {
        "id": "repos_url",
        "label": "repos_url-name",
        "type": "paragraph",
        "sample": "login-unknown"
    },
    {
        "id": "events_url",
        "label": "events_url-name",
        "type": "paragraph",
        "sample": "login-unknown"
    },
    {
        "id": "received_events_url",
        "label": "received_events_url-name",
        "type": "paragraph",
        "sample": "login-unknown"
    },
    {
        "id": "type",
        "label": "type-name",
        "type": "paragraph",
        "sample": "login-unknown"
    },
    {
        "id": "site_admin",
        "label": "site_admin-name",
        "type": "paragraph",
        "sample": "login-unknown"
    },
    {
        "id": "name",
        "label": "name-name",
        "type": "paragraph",
        "sample": "login-unknown"
    },
    {
        "id": "company",
        "label": "company-name",
        "type": "paragraph",
        "sample": "login-unknown"
    },
    {
        "id": "blog",
        "label": "blog-name",
        "type": "paragraph",
        "sample": "login-unknown"
    },
    {
        "id": "location",
        "label": "location-name",
        "type": "paragraph",
        "sample": "login-unknown"
    },
    {
        "id": "email",
        "label": "email-name",
        "type": "paragraph",
        "sample": "login-unknown"
    },
    {
        "id": "hireable",
        "label": "hireable-name",
        "type": "paragraph",
        "sample": "login-unknown"
    },
    {
        "id": "bio",
        "label": "bio-name",
        "type": "paragraph",
        "sample": "login-unknown"
    },
    {
        "id": "public_repos",
        "label": "public_repos-name",
        "type": "paragraph",
        "sample": "login-unknown"
    },
    {
        "id": "public_gists",
        "label": "public_gists-name",
        "type": "paragraph",
        "sample": "login-unknown"
    },
    {
        "id": "followers",
        "label": "followers-name",
        "type": "paragraph",
        "sample": "login-unknown"
    },
    {
        "id": "following",
        "label": "following-name",
        "type": "paragraph",
        "sample": "login-unknown"
    },
    {
        "id": "created_at",
        "label": "created_at-name",
        "type": "paragraph",
        "sample": "login-unknown"
    },
    {
        "id": "updated_at",
        "label": "updated_at-name",
        "type": "paragraph",
        "sample": "login-unknown"
    }
]